"targetingLevelId","externalId","targetingLevelsPeriodId","targetingLevelName","repActionTypeId","facilityRule","accountGroupRule","accountRule","repTeamRule","repRule","productRule","messageTopicRule","messageRule","rollupTargetingLevelId","subordinateTargetingLevelIds","createdAt","updatedAt"
5,"SEND",1001,"SEND",8,2,2,1,2,2,1,2,2,NA,NA,"2015-07-23 06:07:51","2018-01-30 14:30:42"
6,"VISIT_DETAIL",1001,"DTL",4,2,2,1,1,2,1,2,2,NA,NA,"2015-07-22 14:47:41","2018-01-30 14:30:42"
