"interactionId","accountId","suggestionReferenceId","matchedSuggestionRepAccount","matchedSuggestionRepAccountAction","suggestionInferredAt","isDeleted","createdAt","updatedAt"
72654,3357,NA,NA,NA,NA,0,"2015-11-14 14:52:01","2015-11-14 14:52:01"
72675,3357,NA,NA,NA,NA,0,"2015-11-14 14:52:02","2015-11-14 14:52:02"
72682,3357,NA,NA,NA,NA,0,"2015-11-14 14:51:58","2015-11-14 14:51:58"
72693,3357,NA,NA,NA,NA,0,"2015-11-14 14:51:58","2015-11-14 14:51:58"
72833,3357,NA,NA,NA,NA,0,"2015-11-14 14:51:56","2015-11-14 14:51:56"
72886,3357,NA,NA,NA,NA,0,"2015-11-14 14:51:42","2015-11-14 14:51:42"
72973,3357,NA,NA,NA,NA,0,"2015-11-14 14:52:08","2015-11-14 14:52:08"
73100,3357,NA,NA,NA,NA,0,"2015-11-14 14:52:00","2015-11-14 14:52:00"
193961,3357,NA,NA,NA,NA,0,"2015-11-26 05:33:49","2015-11-26 05:33:49"
215797,3357,NA,NA,NA,NA,0,"2015-12-23 05:34:09","2015-12-23 05:34:09"
220361,3357,NA,NA,NA,NA,0,"2016-01-05 05:42:17","2016-01-05 05:42:17"
228935,3357,NA,NA,NA,NA,0,"2016-01-12 05:34:26","2016-01-12 05:34:26"
602119,3357,NA,NA,NA,NA,0,"2016-02-02 07:43:56","2016-02-02 07:43:56"
966379,3357,NA,NA,NA,NA,0,"2016-02-19 06:06:27","2016-02-19 06:06:27"
1095023,3357,NA,NA,NA,NA,0,"2016-03-14 06:24:09","2016-03-14 06:24:09"
1201907,3357,NA,NA,NA,NA,0,"2016-04-06 01:07:18","2016-04-06 01:07:18"
1564211,3357,NA,NA,NA,NA,0,"2016-05-06 02:48:13","2016-05-06 02:48:13"
1575135,3357,NA,NA,NA,NA,0,"2016-05-06 02:50:15","2016-05-06 02:50:15"
1584233,3357,NA,NA,NA,NA,0,"2016-05-06 02:52:33","2016-05-06 02:52:33"
1630054,3357,NA,NA,NA,NA,0,"2016-05-06 03:01:36","2016-05-06 03:01:36"
1638193,3357,NA,NA,NA,NA,0,"2016-05-06 03:03:39","2016-05-06 03:03:39"
1745753,3357,NA,NA,NA,NA,0,"2016-05-06 03:59:20","2016-05-06 03:59:20"
1920756,3357,NA,NA,NA,NA,0,"2016-05-18 23:41:45","2016-05-18 23:41:45"
1925409,3357,NA,NA,NA,NA,0,"2016-05-19 02:12:23","2016-05-19 02:12:23"
2697452,3357,NA,NA,NA,NA,0,"2016-06-06 23:37:32","2016-06-06 23:37:32"
4814835,3357,NA,NA,NA,NA,0,"2016-06-26 21:12:28","2016-06-26 21:12:28"
4927946,3357,NA,NA,NA,NA,0,"2016-07-01 02:06:02","2016-07-01 02:06:02"
5027571,3357,NA,NA,NA,NA,0,"2016-07-08 01:28:04","2016-07-08 01:28:04"
5397414,3357,NA,NA,NA,NA,0,"2016-07-29 23:56:18","2016-07-29 23:56:18"
5743235,3357,NA,NA,NA,NA,0,"2016-08-18 21:56:50","2016-08-18 21:56:50"
5827378,3357,NA,NA,NA,NA,0,"2016-08-20 00:42:30","2016-08-20 00:42:30"
5859948,3357,NA,NA,NA,NA,0,"2016-08-23 01:00:40","2016-08-23 01:00:40"
5942188,3357,NA,NA,NA,NA,0,"2016-08-26 00:14:46","2016-08-26 00:14:46"
5950472,3357,NA,NA,NA,NA,0,"2016-08-26 00:20:33","2016-08-26 00:20:33"
6052063,3357,NA,NA,NA,NA,0,"2016-08-28 15:12:55","2016-08-28 15:12:55"
6475664,3357,NA,NA,NA,NA,0,"2016-09-14 23:43:29","2016-09-14 23:43:29"
6475863,3357,NA,NA,NA,NA,0,"2016-09-14 23:43:12","2016-09-14 23:43:12"
6475982,3357,NA,NA,NA,NA,0,"2016-09-14 23:42:49","2016-09-14 23:42:49"
6476035,3357,NA,NA,NA,NA,0,"2016-09-14 23:43:17","2016-09-14 23:43:17"
6476508,3357,NA,NA,NA,NA,0,"2016-09-14 23:43:23","2016-09-14 23:43:23"
6476630,3357,NA,NA,NA,NA,0,"2016-09-14 23:42:55","2016-09-14 23:42:55"
6476900,3357,NA,NA,NA,NA,0,"2016-09-14 23:42:58","2016-09-14 23:42:58"
6476965,3357,NA,NA,NA,NA,0,"2016-09-14 23:43:17","2016-09-14 23:43:17"
6476992,3357,NA,NA,NA,NA,0,"2016-09-14 23:42:59","2016-09-14 23:42:59"
6477091,3357,NA,NA,NA,NA,0,"2016-09-14 23:43:18","2016-09-14 23:43:18"
6477284,3357,NA,NA,NA,NA,0,"2016-09-14 23:43:22","2016-09-14 23:43:22"
6477304,3357,NA,NA,NA,NA,0,"2016-09-14 23:42:46","2016-09-14 23:42:46"
6498261,3357,NA,NA,NA,NA,0,"2016-09-15 23:18:37","2016-09-15 23:18:37"
6531820,3357,NA,NA,NA,NA,0,"2016-09-16 23:48:19","2016-09-16 23:48:19"
6750470,3357,NA,NA,NA,NA,0,"2016-09-28 06:29:05","2016-09-28 06:29:05"
6754414,3357,NA,NA,NA,NA,0,"2016-09-28 07:01:32","2016-09-28 07:01:32"
6957860,3357,NA,NA,NA,NA,0,"2016-10-08 00:15:53","2016-10-08 00:15:53"
7196629,3357,NA,NA,NA,NA,0,"2016-11-04 04:48:17","2016-11-04 04:48:17"
7317846,3357,NA,NA,NA,NA,0,"2016-11-04 05:49:12","2016-11-04 05:49:12"
126746206,3357,"AKTSUG~a3357~cp10:VV~r1505~V~1:d:p1003",1,1,"2017-05-31 13:44:19",0,"2017-05-24 03:32:14","2017-05-31 14:10:41"
130565101,3357,"AKTSUG~a3357~cp10:VVV~r1505~V~1:d:p1003",1,1,"2017-06-03 00:34:54",0,"2017-06-02 01:33:22","2017-06-03 00:56:28"
146945919,3357,"AKTSUG~a3357~cp10:VVV~r1505~V~1:d:p1003",1,1,"2017-06-21 13:44:48",0,"2017-06-14 00:41:42","2017-06-21 14:12:54"
146946073,3357,"AKTSUG~a3357~cp10:VVV~r1505~V~1:d:p1003",1,1,"2017-06-21 13:44:48",0,"2017-06-14 00:41:42","2017-06-21 14:12:54"
146946201,3357,"AKTSUG~a3357~cp10:VVV~r1505~V~1:d:p1003",1,1,"2017-06-21 13:44:48",0,"2017-06-14 00:41:42","2017-06-21 14:12:54"
146946449,3357,"AKTSUG~a3357~cp10:VVV~r1505~V~1:d:p1003",1,1,"2017-06-21 13:44:48",0,"2017-06-14 00:41:42","2017-06-21 14:12:54"
148295596,3357,"AKTSUG~a3357~cp10:VVV~r1505~V~1:d:p1003",1,1,"2017-06-23 13:44:31",0,"2017-06-16 01:12:57","2017-06-23 14:12:32"
156735265,3357,NA,NA,NA,NA,0,"2017-06-26 04:55:34","2017-06-26 04:55:34"
183748968,3357,NA,NA,NA,NA,0,"2017-07-20 00:38:50","2017-07-20 00:38:50"
183892918,3357,NA,NA,NA,NA,0,"2017-07-20 03:53:42","2017-07-20 03:53:42"
199007116,3357,NA,NA,NA,NA,0,"2017-08-07 23:11:02","2017-08-07 23:11:02"
199030538,3357,NA,NA,NA,NA,0,"2017-08-07 23:12:59","2017-08-07 23:12:59"
201734101,3357,NA,NA,NA,NA,0,"2017-08-23 03:12:15","2017-08-23 03:12:15"
202295967,3357,NA,NA,NA,NA,0,"2017-08-26 04:00:56","2017-08-26 04:00:56"
202296171,3357,NA,NA,NA,NA,0,"2017-08-26 04:00:56","2017-08-26 04:00:56"
202296180,3357,NA,NA,NA,NA,0,"2017-08-26 04:00:56","2017-08-26 04:00:56"
202304294,3357,NA,NA,NA,NA,0,"2017-08-26 04:00:56","2017-08-26 04:00:56"
202304453,3357,NA,NA,NA,NA,0,"2017-08-26 04:00:56","2017-08-26 04:00:56"
202304546,3357,NA,NA,NA,NA,0,"2017-08-26 04:00:56","2017-08-26 04:00:56"
202304761,3357,NA,NA,NA,NA,0,"2017-08-26 04:00:56","2017-08-26 04:00:56"
202304772,3357,NA,NA,NA,NA,0,"2017-08-26 04:00:56","2017-08-26 04:00:56"
202305026,3357,NA,NA,NA,NA,0,"2017-08-26 04:00:56","2017-08-26 04:00:56"
202305174,3357,NA,NA,NA,NA,0,"2017-08-26 04:00:56","2017-08-26 04:00:56"
202305409,3357,NA,NA,NA,NA,0,"2017-08-26 04:00:56","2017-08-26 04:00:56"
202305476,3357,NA,NA,NA,NA,0,"2017-08-26 04:00:56","2017-08-26 04:00:56"
202305595,3357,NA,NA,NA,NA,0,"2017-08-26 04:00:56","2017-08-26 04:00:56"
202305724,3357,NA,NA,NA,NA,0,"2017-08-26 04:00:56","2017-08-26 04:00:56"
204131816,3357,NA,NA,NA,NA,0,"2017-09-08 04:02:21","2017-09-08 04:02:21"
208122433,3357,NA,NA,NA,NA,0,"2017-10-01 02:48:40","2017-10-01 02:48:40"
208607469,3357,NA,NA,NA,NA,0,"2017-10-04 03:01:53","2017-10-04 03:01:53"
210958160,3357,NA,NA,NA,NA,0,"2017-10-17 02:50:35","2017-10-17 02:50:35"
212711307,3357,NA,NA,NA,NA,0,"2017-10-26 05:28:15","2017-10-26 05:28:15"
212793018,3357,NA,NA,NA,NA,0,"2017-10-26 05:55:37","2017-10-26 05:55:37"
108219,5490,NA,NA,NA,NA,0,"2015-11-14 14:57:03","2015-11-14 14:57:03"
108350,5490,NA,NA,NA,NA,0,"2015-11-14 14:57:16","2015-11-14 14:57:16"
108469,5490,NA,NA,NA,NA,0,"2015-11-14 14:57:07","2015-11-14 14:57:07"
108619,5490,NA,NA,NA,NA,0,"2015-11-14 14:57:18","2015-11-14 14:57:18"
108960,5490,NA,NA,NA,NA,0,"2015-11-14 14:57:14","2015-11-14 14:57:14"
109253,5490,NA,NA,NA,NA,0,"2015-11-14 14:57:17","2015-11-14 14:57:17"
192108,5490,NA,NA,NA,NA,0,"2015-11-24 05:42:10","2015-11-24 05:42:10"
209486,5490,NA,NA,NA,NA,0,"2015-12-15 05:46:19","2015-12-15 05:46:19"
221046,5490,NA,NA,NA,NA,0,"2016-01-05 05:48:13","2016-01-05 05:48:13"
617220,5490,NA,NA,NA,NA,0,"2016-02-05 07:15:41","2016-02-05 07:15:41"
945014,5490,NA,NA,NA,NA,0,"2016-02-16 08:46:11","2016-02-16 08:46:11"
1064050,5490,NA,NA,NA,NA,0,"2016-03-08 05:48:24","2016-03-08 05:48:24"
1136015,5490,NA,NA,NA,NA,0,"2016-03-22 05:11:04","2016-03-22 05:11:04"
1637004,5490,NA,NA,NA,NA,0,"2016-05-06 03:03:40","2016-05-06 03:03:40"
1717662,5490,NA,NA,NA,NA,0,"2016-05-06 03:53:39","2016-05-06 03:53:39"
1723541,5490,NA,NA,NA,NA,0,"2016-05-06 03:56:26","2016-05-06 03:56:26"
1724902,5490,NA,NA,NA,NA,0,"2016-05-06 03:55:57","2016-05-06 03:55:57"
1728397,5490,NA,NA,NA,NA,0,"2016-05-06 03:57:21","2016-05-06 03:57:21"
1731538,5490,NA,NA,NA,NA,0,"2016-05-06 03:57:11","2016-05-06 03:57:11"
1748259,5490,NA,NA,NA,NA,0,"2016-05-06 04:00:09","2016-05-06 04:00:09"
1849106,5490,NA,NA,NA,NA,0,"2016-05-10 15:53:09","2016-05-10 15:53:09"
1949605,5490,NA,NA,NA,NA,0,"2016-05-23 23:45:07","2016-05-23 23:45:07"
2706311,5490,NA,NA,NA,NA,0,"2016-06-06 23:38:50","2016-06-06 23:38:50"
4026060,5490,NA,NA,NA,NA,0,"2016-06-21 00:20:47","2016-06-21 00:20:47"
4816315,5490,NA,NA,NA,NA,0,"2016-06-26 21:12:17","2016-06-26 21:12:17"
4818862,5490,NA,NA,NA,NA,0,"2016-06-26 21:13:37","2016-06-26 21:13:37"
4953296,5490,NA,NA,NA,NA,0,"2016-07-02 02:36:45","2016-07-02 02:36:45"
4953313,5490,NA,NA,NA,NA,0,"2016-07-02 02:36:45","2016-07-02 02:36:45"
5010235,5490,NA,NA,NA,NA,0,"2016-07-07 01:10:03","2016-07-07 01:10:03"
5031565,5490,NA,NA,NA,NA,0,"2016-07-08 01:30:49","2016-07-08 01:30:49"
5672579,5490,NA,NA,NA,NA,0,"2016-08-15 23:17:10","2016-08-15 23:17:10"
5769208,5490,NA,NA,NA,NA,0,"2016-08-18 21:59:38","2016-08-18 21:59:38"
5950647,5490,NA,NA,NA,NA,0,"2016-08-26 00:20:41","2016-08-26 00:20:41"
6001167,5490,NA,NA,NA,NA,0,"2016-08-28 13:39:38","2016-08-28 13:39:38"
6403246,5490,NA,NA,NA,NA,0,"2016-09-12 04:05:54","2016-09-12 04:05:54"
6475372,5490,NA,NA,NA,NA,0,"2016-09-14 23:43:22","2016-09-14 23:43:22"
6475416,5490,NA,NA,NA,NA,0,"2016-09-14 23:43:22","2016-09-14 23:43:22"
6475784,5490,NA,NA,NA,NA,0,"2016-09-14 23:43:08","2016-09-14 23:43:08"
6475793,5490,NA,NA,NA,NA,0,"2016-09-14 23:43:08","2016-09-14 23:43:08"
6475947,5490,NA,NA,NA,NA,0,"2016-09-14 23:42:49","2016-09-14 23:42:49"
6476071,5490,NA,NA,NA,NA,0,"2016-09-14 23:42:51","2016-09-14 23:42:51"
6476080,5490,NA,NA,NA,NA,0,"2016-09-14 23:43:17","2016-09-14 23:43:17"
6476090,5490,NA,NA,NA,NA,0,"2016-09-14 23:43:17","2016-09-14 23:43:17"
6476264,5490,NA,NA,NA,NA,0,"2016-09-14 23:43:12","2016-09-14 23:43:12"
6476620,5490,NA,NA,NA,NA,0,"2016-09-14 23:42:56","2016-09-14 23:42:56"
6476677,5490,NA,NA,NA,NA,0,"2016-09-14 23:42:57","2016-09-14 23:42:57"
6476714,5490,NA,NA,NA,NA,0,"2016-09-14 23:42:40","2016-09-14 23:42:40"
6476760,5490,NA,NA,NA,NA,0,"2016-09-14 23:42:58","2016-09-14 23:42:58"
6476856,5490,NA,NA,NA,NA,0,"2016-09-14 23:42:41","2016-09-14 23:42:41"
6476905,5490,NA,NA,NA,NA,0,"2016-09-14 23:43:27","2016-09-14 23:43:27"
6476933,5490,NA,NA,NA,NA,0,"2016-09-14 23:43:30","2016-09-14 23:43:30"
6477037,5490,NA,NA,NA,NA,0,"2016-09-14 23:42:59","2016-09-14 23:42:59"
6477177,5490,NA,NA,NA,NA,0,"2016-09-14 23:42:44","2016-09-14 23:42:44"
6477237,5490,NA,NA,NA,NA,0,"2016-09-14 23:43:22","2016-09-14 23:43:22"
6477279,5490,NA,NA,NA,NA,0,"2016-09-14 23:43:02","2016-09-14 23:43:02"
6477300,5490,NA,NA,NA,NA,0,"2016-09-14 23:42:46","2016-09-14 23:42:46"
6477302,5490,NA,NA,NA,NA,0,"2016-09-14 23:43:04","2016-09-14 23:43:04"
6477461,5490,NA,NA,NA,NA,0,"2016-09-14 23:42:49","2016-09-14 23:42:49"
6621495,5490,NA,NA,NA,NA,0,"2016-09-22 00:15:00","2016-09-22 00:15:00"
6628911,5490,NA,NA,NA,NA,0,"2016-09-22 00:46:26","2016-09-22 00:46:26"
7196897,5490,NA,NA,NA,NA,0,"2016-11-04 04:47:12","2016-11-04 04:47:12"
7196925,5490,NA,NA,NA,NA,0,"2016-11-04 04:47:12","2016-11-04 04:47:12"
7197243,5490,NA,NA,NA,NA,0,"2016-11-04 04:48:18","2016-11-04 04:48:18"
7197259,5490,NA,NA,NA,NA,0,"2016-11-04 04:48:18","2016-11-04 04:48:18"
7361282,5490,NA,NA,NA,NA,0,"2016-11-04 05:53:46","2016-11-04 05:53:46"
7364691,5490,NA,NA,NA,NA,0,"2016-11-04 05:53:59","2016-11-04 05:53:59"
7368443,5490,NA,NA,NA,NA,0,"2016-11-04 05:54:29","2016-11-04 05:54:29"
7594022,5490,NA,NA,NA,NA,0,"2016-11-15 03:35:08","2016-11-15 03:35:08"
7883905,5490,NA,NA,NA,NA,0,"2016-12-02 02:11:38","2016-12-02 02:11:38"
7891131,5490,NA,NA,NA,NA,0,"2016-12-02 02:50:13","2016-12-02 02:50:13"
7929228,5490,NA,NA,NA,NA,0,"2016-12-06 02:10:44","2016-12-06 02:10:44"
7944093,5490,NA,NA,NA,NA,0,"2016-12-06 02:48:37","2016-12-06 02:48:37"
8147133,5490,NA,NA,NA,NA,0,"2016-12-17 09:20:33","2016-12-17 09:20:33"
25411723,5490,NA,NA,NA,NA,0,"2017-01-13 07:22:13","2017-01-13 07:22:13"
28628914,5490,"AKTSUG~a5490~cp9:VVVVVVV~r1505~S~s:p1003~TRIG:VisitFollowupEmailtrigger",1,1,"2017-01-18 17:04:20",0,"2017-01-18 00:11:39","2017-01-18 17:20:44"
36091126,5490,NA,NA,NA,NA,0,"2017-01-28 01:00:36","2017-01-28 01:00:36"
36824510,5490,NA,NA,NA,NA,0,"2017-01-28 02:49:36","2017-01-28 02:49:36"
42076702,5490,NA,NA,NA,NA,0,"2017-01-31 08:30:12","2017-01-31 08:30:12"
60292798,5490,NA,NA,NA,NA,0,"2017-02-18 02:40:10","2017-02-18 02:40:10"
60663251,5490,NA,NA,NA,NA,0,"2017-02-19 00:03:37","2017-02-19 00:03:37"
64950236,5490,NA,NA,NA,NA,0,"2017-03-02 02:28:58","2017-03-02 02:28:58"
64950427,5490,NA,NA,NA,NA,0,"2017-03-02 02:28:58","2017-03-02 02:28:58"
64950532,5490,NA,NA,NA,NA,0,"2017-03-02 02:28:58","2017-03-02 02:28:58"
64950668,5490,NA,NA,NA,NA,0,"2017-03-02 02:28:58","2017-03-02 02:28:58"
64950759,5490,NA,NA,NA,NA,0,"2017-03-02 02:28:58","2017-03-02 02:28:58"
64950938,5490,NA,NA,NA,NA,0,"2017-03-02 02:28:58","2017-03-02 02:28:58"
66449302,5490,NA,NA,NA,NA,0,"2017-03-07 07:45:49","2017-03-07 07:45:49"
68505962,5490,NA,NA,NA,NA,0,"2017-03-10 07:55:31","2017-03-10 07:55:31"
76274746,5490,"AKTSUG~a5490~cp9:VVVV~r1505~V~1:d:p1003",1,1,"2017-04-07 16:04:13",0,"2017-03-21 01:51:29","2017-04-07 16:21:03"
81269649,5490,"AKTSUG~a5490~cp9:VVVV~r1505~V~1:d:p1003",1,1,"2017-04-01 16:06:12",0,"2017-03-25 04:18:58","2017-04-01 16:21:06"
88923466,5490,NA,NA,NA,NA,0,"2017-04-08 01:32:42","2017-04-08 01:32:42"
111462731,5490,NA,NA,NA,NA,0,"2017-04-27 00:00:04","2017-04-27 00:00:04"
124831318,5490,NA,NA,NA,NA,0,"2017-05-17 23:33:43","2017-05-17 23:33:43"
130565104,5490,NA,NA,NA,NA,0,"2017-06-02 01:33:22","2017-06-02 01:33:22"
131066913,5490,"AKTSUG~a5490~cp10:VVVVVVVV~r1505~S~s:p1003~X312853~TRIG:2VisitFollowupEmailtrigger",1,1,"2017-06-09 13:44:30",0,"2017-06-02 01:34:25","2017-06-09 14:15:00"
146945978,5490,NA,NA,NA,NA,0,"2017-06-14 00:41:42","2017-06-14 00:41:42"
146946098,5490,NA,NA,NA,NA,0,"2017-06-14 00:41:42","2017-06-14 00:41:42"
146946339,5490,NA,NA,NA,NA,0,"2017-06-14 00:41:42","2017-06-14 00:41:42"
172318120,5490,NA,NA,NA,NA,0,"2017-07-08 00:23:57","2017-07-08 00:23:57"
181899970,5490,NA,NA,NA,NA,0,"2017-07-18 03:24:23","2017-07-18 03:24:23"
193142922,5490,NA,NA,NA,NA,0,"2017-07-28 00:53:16","2017-07-28 00:53:16"
193261293,5490,NA,NA,NA,NA,0,"2017-07-28 03:25:47","2017-07-28 03:25:47"
198441728,5490,NA,NA,NA,NA,0,"2017-08-04 01:55:54","2017-08-04 01:55:54"
202295947,5490,NA,NA,NA,NA,0,"2017-08-26 04:00:56","2017-08-26 04:00:56"
202295997,5490,NA,NA,NA,NA,0,"2017-08-26 04:00:56","2017-08-26 04:00:56"
202296107,5490,NA,NA,NA,NA,0,"2017-08-26 04:00:56","2017-08-26 04:00:56"
202296115,5490,NA,NA,NA,NA,0,"2017-08-26 04:00:56","2017-08-26 04:00:56"
202296230,5490,NA,NA,NA,NA,0,"2017-08-26 04:00:56","2017-08-26 04:00:56"
202304292,5490,NA,NA,NA,NA,0,"2017-08-26 04:00:56","2017-08-26 04:00:56"
202304525,5490,NA,NA,NA,NA,0,"2017-08-26 04:00:56","2017-08-26 04:00:56"
202304778,5490,NA,NA,NA,NA,0,"2017-08-26 04:00:56","2017-08-26 04:00:56"
202304793,5490,NA,NA,NA,NA,0,"2017-08-26 04:00:56","2017-08-26 04:00:56"
202305096,5490,NA,NA,NA,NA,0,"2017-08-26 04:00:56","2017-08-26 04:00:56"
202305314,5490,NA,NA,NA,NA,0,"2017-08-26 04:00:56","2017-08-26 04:00:56"
202305403,5490,NA,NA,NA,NA,0,"2017-08-26 04:00:56","2017-08-26 04:00:56"
202305495,5490,NA,NA,NA,NA,0,"2017-08-26 04:00:56","2017-08-26 04:00:56"
202305687,5490,NA,NA,NA,NA,0,"2017-08-26 04:00:56","2017-08-26 04:00:56"
206134380,5490,NA,NA,NA,NA,0,"2017-09-21 02:55:44","2017-09-21 02:55:44"
206181121,5490,NA,NA,NA,NA,0,"2017-09-21 02:56:37","2017-09-21 02:56:37"
207665574,5490,"AKTSUG~a5490~cp11:VSVSVVSSVSV~r1505~V~1:d:p1003~2:d:p1006~3:d:p1014",1,1,"2017-10-02 13:06:15",0,"2017-09-28 05:20:05","2017-10-02 13:34:38"
212644258,5490,NA,NA,NA,NA,0,"2017-10-25 05:24:32","2017-10-25 05:24:32"
2184613,174755,NA,NA,NA,NA,0,"2016-06-03 00:50:27","2016-06-03 00:50:27"
2186150,174755,NA,NA,NA,NA,0,"2016-06-03 00:50:28","2016-06-03 00:50:28"
2187579,174755,NA,NA,NA,NA,0,"2016-06-03 00:50:59","2016-06-03 00:50:59"
2188166,174755,NA,NA,NA,NA,0,"2016-06-03 00:50:09","2016-06-03 00:50:09"
2190164,174755,NA,NA,NA,NA,0,"2016-06-03 00:50:29","2016-06-03 00:50:29"
2662133,174755,NA,NA,NA,NA,0,"2016-06-03 09:39:34","2016-06-03 09:39:34"
2662239,174755,NA,NA,NA,NA,0,"2016-06-03 09:38:59","2016-06-03 09:38:59"
2662976,174755,NA,NA,NA,NA,0,"2016-06-03 09:37:42","2016-06-03 09:37:42"
2664375,174755,NA,NA,NA,NA,0,"2016-06-03 09:37:03","2016-06-03 09:37:03"
2664819,174755,NA,NA,NA,NA,0,"2016-06-03 09:39:45","2016-06-03 09:39:45"
2697337,174755,NA,NA,NA,NA,0,"2016-06-06 23:37:22","2016-06-06 23:37:22"
2697338,174755,NA,NA,NA,NA,0,"2016-06-06 23:37:29","2016-06-06 23:37:29"
3887408,174755,NA,NA,NA,NA,0,"2016-06-16 00:03:18","2016-06-16 00:03:18"
4119916,174755,NA,NA,NA,NA,0,"2016-06-26 19:48:54","2016-06-26 19:48:54"
4127260,174755,NA,NA,NA,NA,0,"2016-06-26 19:49:40","2016-06-26 19:49:40"
4141554,174755,NA,NA,NA,NA,0,"2016-06-26 19:51:06","2016-06-26 19:51:06"
4154604,174755,NA,NA,NA,NA,0,"2016-06-26 19:52:33","2016-06-26 19:52:33"
4155665,174755,NA,NA,NA,NA,0,"2016-06-26 19:52:35","2016-06-26 19:52:35"
4169693,174755,NA,NA,NA,NA,0,"2016-06-26 19:53:46","2016-06-26 19:53:46"
4185222,174755,NA,NA,NA,NA,0,"2016-06-26 19:56:05","2016-06-26 19:56:05"
4194600,174755,NA,NA,NA,NA,0,"2016-06-26 19:57:05","2016-06-26 19:57:05"
4477899,174755,NA,NA,NA,NA,0,"2016-06-26 20:34:05","2016-06-26 20:34:05"
4511984,174755,NA,NA,NA,NA,0,"2016-06-26 20:38:12","2016-06-26 20:38:12"
4811410,174755,NA,NA,NA,NA,0,"2016-06-26 21:12:03","2016-06-26 21:12:03"
4948603,174755,NA,NA,NA,NA,0,"2016-07-02 02:34:54","2016-07-02 02:34:54"
5004321,174755,NA,NA,NA,NA,0,"2016-07-07 01:07:56","2016-07-07 01:07:56"
5027523,174755,NA,NA,NA,NA,0,"2016-07-08 01:28:05","2016-07-08 01:28:05"
5448889,174755,NA,NA,NA,NA,0,"2016-08-02 04:52:48","2016-08-02 04:52:48"
5739721,174755,NA,NA,NA,NA,0,"2016-08-18 21:56:29","2016-08-18 21:56:29"
5859840,174755,NA,NA,NA,NA,0,"2016-08-23 01:00:34","2016-08-23 01:00:34"
5859842,174755,NA,NA,NA,NA,0,"2016-08-23 01:00:36","2016-08-23 01:00:36"
6475558,174755,NA,NA,NA,NA,0,"2016-09-14 23:43:26","2016-09-14 23:43:26"
6475610,174755,NA,NA,NA,NA,0,"2016-09-14 23:43:27","2016-09-14 23:43:27"
6475647,174755,NA,NA,NA,NA,0,"2016-09-14 23:43:28","2016-09-14 23:43:28"
6476003,174755,NA,NA,NA,NA,0,"2016-09-14 23:42:50","2016-09-14 23:42:50"
6476088,174755,NA,NA,NA,NA,0,"2016-09-14 23:43:17","2016-09-14 23:43:17"
6476242,174755,NA,NA,NA,NA,0,"2016-09-14 23:43:20","2016-09-14 23:43:20"
6476445,174755,NA,NA,NA,NA,0,"2016-09-14 23:42:54","2016-09-14 23:42:54"
6476476,174755,NA,NA,NA,NA,0,"2016-09-14 23:43:23","2016-09-14 23:43:23"
6476545,174755,NA,NA,NA,NA,0,"2016-09-14 23:42:56","2016-09-14 23:42:56"
6477199,174755,NA,NA,NA,NA,0,"2016-09-14 23:43:01","2016-09-14 23:43:01"
6477210,174755,NA,NA,NA,NA,0,"2016-09-14 23:43:03","2016-09-14 23:43:03"
7197264,174755,NA,NA,NA,NA,0,"2016-11-04 04:47:13","2016-11-04 04:47:13"
7197509,174755,NA,NA,NA,NA,0,"2016-11-04 04:48:25","2016-11-04 04:48:25"
7371402,174755,NA,NA,NA,NA,0,"2016-11-04 05:54:47","2016-11-04 05:54:47"
7376433,174755,NA,NA,NA,NA,0,"2016-11-04 05:55:15","2016-11-04 05:55:15"
7594038,174755,NA,NA,NA,NA,0,"2016-11-15 03:35:37","2016-11-15 03:35:37"
7902753,174755,NA,NA,NA,NA,0,"2016-12-03 02:02:54","2016-12-03 02:02:54"
7909166,174755,NA,NA,NA,NA,0,"2016-12-03 02:39:12","2016-12-03 02:39:12"
7929188,174755,NA,NA,NA,NA,0,"2016-12-06 02:10:36","2016-12-06 02:10:36"
7944112,174755,NA,NA,NA,NA,0,"2016-12-06 02:48:37","2016-12-06 02:48:37"
8147264,174755,NA,NA,NA,NA,0,"2016-12-17 09:20:32","2016-12-17 09:20:32"
25411764,174755,NA,NA,NA,NA,0,"2017-01-13 07:22:13","2017-01-13 07:22:13"
28629011,174755,NA,NA,NA,NA,0,"2017-01-18 00:11:40","2017-01-18 00:11:40"
36019378,174755,NA,NA,NA,NA,0,"2017-01-27 06:39:52","2017-01-27 06:39:52"
36092489,174755,NA,NA,NA,NA,0,"2017-01-28 01:00:59","2017-01-28 01:00:59"
42076704,174755,NA,NA,NA,NA,0,"2017-01-31 08:30:12","2017-01-31 08:30:12"
60292806,174755,NA,NA,NA,NA,0,"2017-02-18 02:40:10","2017-02-18 02:40:10"
60663300,174755,NA,NA,NA,NA,0,"2017-02-19 00:03:42","2017-02-19 00:03:42"
60753441,174755,NA,NA,NA,NA,0,"2017-02-19 01:27:41","2017-02-19 01:27:41"
61501579,174755,NA,NA,NA,NA,0,"2017-02-23 02:10:05","2017-02-23 02:10:05"
61835094,174755,NA,NA,NA,NA,0,"2017-02-23 06:06:17","2017-02-23 06:06:17"
64950207,174755,NA,NA,NA,NA,0,"2017-03-02 02:28:58","2017-03-02 02:28:58"
64950425,174755,NA,NA,NA,NA,0,"2017-03-02 02:28:58","2017-03-02 02:28:58"
64950552,174755,NA,NA,NA,NA,0,"2017-03-02 02:28:58","2017-03-02 02:28:58"
64950708,174755,NA,NA,NA,NA,0,"2017-03-02 02:28:58","2017-03-02 02:28:58"
64950864,174755,NA,NA,NA,NA,0,"2017-03-02 02:28:58","2017-03-02 02:28:58"
64950936,174755,NA,NA,NA,NA,0,"2017-03-02 02:28:58","2017-03-02 02:28:58"
68452546,174755,NA,NA,NA,NA,0,"2017-03-10 07:53:06","2017-03-10 07:53:06"
68505957,174755,NA,NA,NA,NA,0,"2017-03-10 07:55:31","2017-03-10 07:55:31"
76274745,174755,"AKTSUG~a174755~cp9:VVVVV~r1505~V~1:d:p1003",1,1,"2017-04-05 18:52:39",0,"2017-03-21 01:51:29","2017-04-05 19:09:08"
81269650,174755,"AKTSUG~a174755~cp9:VVVVV~r1505~V~1:d:p1003",1,1,"2017-04-01 16:06:12",0,"2017-03-25 04:18:58","2017-04-01 16:21:06"
88923470,174755,NA,NA,NA,NA,0,"2017-04-08 01:32:42","2017-04-08 01:32:42"
89248250,174755,NA,NA,NA,NA,0,"2017-04-08 01:42:04","2017-04-08 01:42:04"
111697822,174755,NA,NA,NA,NA,0,"2017-04-27 03:32:50","2017-04-27 03:32:50"
111791051,174755,NA,NA,NA,NA,0,"2017-04-27 03:36:38","2017-04-27 03:36:38"
124731591,174755,NA,NA,NA,NA,0,"2017-05-17 23:30:03","2017-05-17 23:30:03"
124830186,174755,NA,NA,NA,NA,0,"2017-05-17 23:33:43","2017-05-17 23:33:43"
129225792,174755,NA,NA,NA,NA,0,"2017-05-31 03:45:11","2017-05-31 03:45:11"
130565106,174755,NA,NA,NA,NA,0,"2017-06-02 01:33:22","2017-06-02 01:33:22"
131059059,174755,NA,NA,NA,NA,0,"2017-06-02 01:34:21","2017-06-02 01:34:21"
146945993,174755,NA,NA,NA,NA,0,"2017-06-14 00:41:42","2017-06-14 00:41:42"
146946220,174755,NA,NA,NA,NA,0,"2017-06-14 00:41:42","2017-06-14 00:41:42"
146946404,174755,NA,NA,NA,NA,0,"2017-06-14 00:41:42","2017-06-14 00:41:42"
160209167,174755,NA,NA,NA,NA,0,"2017-06-29 01:36:08","2017-06-29 01:36:08"
172318105,174755,NA,NA,NA,NA,0,"2017-07-08 00:23:57","2017-07-08 00:23:57"
181892097,174755,"AKTSUG~a174755~cp11:VVV~r1505~S~s:p1003~TRIG:1VisitfollowupLTRTrigger",1,1,"2017-07-25 13:44:02",0,"2017-07-18 03:23:56","2017-07-25 14:14:22"
193094650,174755,NA,NA,NA,NA,0,"2017-07-28 00:53:02","2017-07-28 00:53:02"
193142916,174755,NA,NA,NA,NA,0,"2017-07-28 00:53:16","2017-07-28 00:53:16"
198441726,174755,NA,NA,NA,NA,0,"2017-08-04 01:55:54","2017-08-04 01:55:54"
202295971,174755,NA,NA,NA,NA,0,"2017-08-26 04:00:56","2017-08-26 04:00:56"
202296033,174755,NA,NA,NA,NA,0,"2017-08-26 04:00:56","2017-08-26 04:00:56"
202296150,174755,NA,NA,NA,NA,0,"2017-08-26 04:00:56","2017-08-26 04:00:56"
202296293,174755,NA,NA,NA,NA,0,"2017-08-26 04:00:56","2017-08-26 04:00:56"
202296373,174755,NA,NA,NA,NA,0,"2017-08-26 04:00:56","2017-08-26 04:00:56"
202304123,174755,NA,NA,NA,NA,0,"2017-08-26 04:00:56","2017-08-26 04:00:56"
202304542,174755,NA,NA,NA,NA,0,"2017-08-26 04:00:56","2017-08-26 04:00:56"
202304624,174755,NA,NA,NA,NA,0,"2017-08-26 04:00:56","2017-08-26 04:00:56"
202304667,174755,NA,NA,NA,NA,0,"2017-08-26 04:00:56","2017-08-26 04:00:56"
202304676,174755,NA,NA,NA,NA,0,"2017-08-26 04:00:56","2017-08-26 04:00:56"
202305007,174755,NA,NA,NA,NA,0,"2017-08-26 04:00:56","2017-08-26 04:00:56"
202305307,174755,NA,NA,NA,NA,0,"2017-08-26 04:00:56","2017-08-26 04:00:56"
202305569,174755,NA,NA,NA,NA,0,"2017-08-26 04:00:56","2017-08-26 04:00:56"
202305814,174755,NA,NA,NA,NA,0,"2017-08-26 04:00:56","2017-08-26 04:00:56"
206124658,174755,NA,NA,NA,NA,0,"2017-09-21 02:55:24","2017-09-21 02:55:24"
207665583,174755,"AKTSUG~a174755~cp11:VSVVVSVSV~r1505~V~1:d:p1003~2:d:p1006~X524138",1,1,"2017-09-29 13:06:33",0,"2017-09-28 05:20:05","2017-09-29 13:38:48"
208130036,174755,NA,NA,NA,NA,0,"2017-10-01 02:49:05","2017-10-01 02:49:05"
208173078,174755,"AKTSUG~a174755~cp11:VSVVVSVSV~r1505~V~1:d:p1003~2:d:p1006~X524138",1,1,"2017-10-07 13:08:37",0,"2017-10-01 02:49:29","2017-10-07 13:42:12"
210224313,174755,NA,NA,NA,NA,0,"2017-10-12 05:20:47","2017-10-12 05:20:47"
213494253,174755,NA,NA,NA,NA,0,"2017-10-31 00:20:28","2017-10-31 00:20:28"
58352290,416945,NA,NA,NA,NA,0,"2017-02-16 01:01:42","2017-02-16 01:01:42"
58589560,416945,NA,NA,NA,NA,0,"2017-02-16 07:58:53","2017-02-16 07:58:53"
58589601,416945,NA,NA,NA,NA,0,"2017-02-16 07:58:53","2017-02-16 07:58:53"
58589635,416945,NA,NA,NA,NA,0,"2017-02-16 07:58:53","2017-02-16 07:58:53"
68918847,416945,NA,NA,NA,NA,0,"2017-03-14 03:20:17","2017-03-14 03:20:17"
83428435,416945,NA,NA,NA,NA,0,"2017-03-29 02:14:24","2017-03-29 02:14:24"
112989423,416945,"AKTSUG~a416945~cp10:~r1605~V~1:d:p1011~X271067~TRIG:3PVCHighValueHCP-ShareChangeMedicare",1,1,"2017-05-05 13:44:22",0,"2017-04-28 07:45:20","2017-05-05 14:13:01"
126564213,416945,NA,NA,NA,NA,0,"2017-05-24 00:55:50","2017-05-24 00:55:50"
135823702,416945,"AKTSUG~a416945~cp10:V~r1605~V~1:d:p1011~X271067~TRIG:2PVCHighValueHCP-ShareChangeCommercial",1,1,"2017-06-14 13:46:04",0,"2017-06-07 02:45:27","2017-06-14 14:14:15"
152431647,416945,NA,NA,NA,NA,0,"2017-06-20 01:53:17","2017-06-20 01:53:17"
170306739,416945,NA,NA,NA,NA,0,"2017-07-07 00:05:04","2017-07-07 00:05:04"
181879427,416945,NA,NA,NA,NA,0,"2017-07-17 23:13:48","2017-07-17 23:13:48"
193953691,416945,NA,NA,NA,NA,0,"2017-07-31 23:28:36","2017-07-31 23:28:36"
200525921,416945,NA,NA,NA,NA,0,"2017-08-15 00:53:07","2017-08-15 00:53:07"
202797011,416945,NA,NA,NA,NA,0,"2017-08-30 01:10:48","2017-08-30 01:10:48"
210203678,416945,NA,NA,NA,NA,0,"2017-10-12 02:35:25","2017-10-12 02:35:25"
210388514,416945,NA,NA,NA,NA,0,"2017-10-13 01:39:03","2017-10-13 01:39:03"
212470031,416945,NA,NA,NA,NA,0,"2017-10-24 05:59:17","2017-10-24 05:59:17"
213224969,416945,NA,NA,NA,NA,0,"2017-10-29 00:46:40","2017-10-29 00:46:40"
58354878,423705,NA,NA,NA,NA,0,"2017-02-16 01:02:08","2017-02-16 01:02:08"
58589552,423705,NA,NA,NA,NA,0,"2017-02-16 07:58:53","2017-02-16 07:58:53"
58589614,423705,NA,NA,NA,NA,0,"2017-02-16 07:58:53","2017-02-16 07:58:53"
60352920,423705,NA,NA,NA,NA,0,"2017-02-18 02:41:38","2017-02-18 02:41:38"
66367030,423705,NA,NA,NA,NA,0,"2017-03-07 02:43:58","2017-03-07 02:43:58"
77551332,423705,NA,NA,NA,NA,0,"2017-03-22 02:22:30","2017-03-22 02:22:30"
86094494,423705,NA,NA,NA,NA,0,"2017-04-06 08:20:02","2017-04-06 08:20:02"
103070343,423705,NA,NA,NA,NA,0,"2017-04-20 01:22:52","2017-04-20 01:22:52"
117646752,423705,NA,NA,NA,NA,0,"2017-05-04 00:26:57","2017-05-04 00:26:57"
124751106,423705,NA,NA,NA,NA,0,"2017-05-17 23:30:38","2017-05-17 23:30:38"
129074045,423705,NA,NA,NA,NA,0,"2017-05-30 22:50:35","2017-05-30 22:50:35"
137807766,423705,NA,NA,NA,NA,0,"2017-06-08 03:19:42","2017-06-08 03:19:42"
147085868,423705,NA,NA,NA,NA,0,"2017-06-14 00:41:53","2017-06-14 00:41:53"
176719725,423705,NA,NA,NA,NA,0,"2017-07-11 23:36:54","2017-07-11 23:36:54"
183553653,423705,NA,NA,NA,NA,0,"2017-07-19 02:39:26","2017-07-19 02:39:26"
190758825,423705,NA,NA,NA,NA,0,"2017-07-26 01:27:12","2017-07-26 01:27:12"
196393599,423705,NA,NA,NA,NA,0,"2017-08-02 23:40:36","2017-08-02 23:40:36"
199599924,423705,NA,NA,NA,NA,0,"2017-08-10 01:33:49","2017-08-10 01:33:49"
201040749,423705,NA,NA,NA,NA,0,"2017-08-17 07:15:52","2017-08-17 07:15:52"
202155851,423705,NA,NA,NA,NA,0,"2017-08-25 01:21:48","2017-08-25 01:21:48"
204120062,423705,NA,NA,NA,NA,0,"2017-09-08 01:35:13","2017-09-08 01:35:13"
205544264,423705,NA,NA,NA,NA,0,"2017-09-15 01:37:01","2017-09-15 01:37:01"
206115260,423705,NA,NA,NA,NA,0,"2017-09-20 05:44:47","2017-09-20 05:44:47"
206143973,423705,NA,NA,NA,NA,0,"2017-09-21 02:56:20","2017-09-21 02:56:20"
206251362,423705,NA,NA,NA,NA,0,"2017-09-21 02:56:40","2017-09-21 02:56:40"
209184632,423705,NA,NA,NA,NA,0,"2017-10-06 00:33:38","2017-10-06 00:33:38"
209184638,423705,NA,NA,NA,NA,0,"2017-10-06 00:33:38","2017-10-06 00:33:38"
211136987,423705,NA,NA,NA,NA,0,"2017-10-18 02:51:05","2017-10-18 02:51:05"
213827921,423705,NA,NA,NA,NA,0,"2017-11-02 01:38:16","2017-11-02 01:38:16"
213930422,423705,NA,NA,NA,NA,0,"2017-11-02 01:39:22","2017-11-02 01:39:22"
214326445,423705,NA,NA,NA,NA,0,"2017-11-04 01:39:42","2017-11-04 01:39:42"
