"repTeamId","repId","createdAt","updatedAt"
1001,1001,"2015-11-12 18:40:48","2015-11-12 18:40:48"
1001,1002,"2015-11-12 18:40:48","2015-11-12 18:40:48"
1004,1505,"2016-06-02 22:42:04","2016-06-02 22:42:04"
1007,1605,"2017-08-02 16:43:16","2017-08-02 16:43:16"
1001,1623,"2016-01-27 20:51:02","2016-01-27 20:51:02"
